{
  "defaultSeverity": "warning",
  "extends": [
    "tslint:recommended"
  ],
  "linterOptions": {
    "exclude": [
      "node_modules/**"
    ]
  },
  "rules": {
    "indent": [true, "spaces", 4],
    "interface-name": false,
    "no-consecutive-blank-lines": false,
    "object-literal-sort-keys": false,
    "ordered-imports": false,
    "quotemark": false, // [true, "single"]
      "member-access": false,
      "member-ordering": false,
    "no-string-literal": false,
    "no-var-requires": false,
    "no-console": false,
    "no-shadowed-variable": false,
    "prefer-const": false,
    "semicolon": [false],
      "trailing-comma": [false]
  }
}
